{
  "name": "modifybugtest_1",
  "projectDescription": "modify bug 2197, 1",
  "owner": {
    "uid": "gagandeep.chhabra"
  },
  "developers": ["gagandeep.chhabra"],
  "environments": ["DEV"],
  "persistent_volume_size": 2,
  "components": [
  {
         "type":"job",
         "flavor":"python",
         "name":"component1",
         "description": "abc desc"
      }
  ]
}